Calculate likelihood for a three-state clock forward state transition model — calc_likes_stm_cf • psm3mkv
…
  pps_cf = find_bestfit_spl(fits$pps_cf, "aic")$fit,
  pps_cr = find_bestfit_spl(fits$pps_cr, "aic")$fit
  )
calc_likes_stm_cf(bosonc, dpam=params)
#> $npts
#> [1] 204 204
#> 
#> $npar
#> [1] 9
#> 
#> $ll
#> [1] -833.162 -833.162
#> 
#> $data
#> # A tibble: 204 × 23
#>     ptid pfs.durn pfs.flag os.durn os.flag ttp.durn ttp.flag  httpu sttpu
#>    <int>    <dbl>    <dbl>   <dbl>   <dbl>    <dbl>    <dbl>  <dbl> <dbl>
#>  1     1   18.7          1   42.9        1   18.7          1 0.0326 0.448
#>  2     2   12.0          1   23.3        1   12.0          1 0.0387 0.567
#>  3     3    0.452        1    8.81       1    0.452        1 0.0623 0.971
#>  4     4    9.07         1   52.7        1    9.07         1 0.0421 0.638
#>  5     5   47.7          0   47.7        0   47.7          0 0.0196 0.218
#>  6     6    3.26         1   13.1        1    3.26         1 0.0502 0.833
#>  7     7    0.738        1    2.74       1    0.738        1 0.0594 0.954
#>  8     8   35.5          1   35.5        1   35.5          0 0.0233 0.282
#>  9     9   10.4          1   37.1        1   10.4          1 0.0406 0.605
#> 10    10   10.5          1   32.7        1   10.5          1 0.0405 0.603
#> # ℹ 194 more rows
#> # ℹ 14 more variables: hppdu <dbl>, sppdu <dbl>, sppsu <dbl>, sppst <dbl>,
#> #   hppst <dbl>, f1 <dbl>, f2 <dbl>, f3 <dbl>, f4 <dbl>, like <dbl>,
#> #   llike <dbl>, outcome <dbl>, chf <lgl>, valid <lgl>
…
